module gitlab.com/bosi/mocking-server

go 1.23.0

toolchain go1.24.0

require (
	github.com/labstack/echo/v4 v4.13.3
	github.com/stretchr/testify v1.10.0
	gopkg.in/yaml.v3 v3.0.1
	syreclabs.com/go/faker v1.2.3
)

require (
	github.com/davecgh/go-spew v1.1.1 // indirect
	github.com/labstack/gommon v0.4.2 // indirect
	github.com/mattn/go-colorable v0.1.14 // indirect
	github.com/mattn/go-isatty v0.0.20 // indirect
	github.com/pmezard/go-difflib v1.0.0 // indirect
	github.com/valyala/bytebufferpool v1.0.0 // indirect
	github.com/valyala/fasttemplate v1.2.2 // indirect
	golang.org/x/crypto v0.36.0 // indirect
	golang.org/x/net v0.35.0 // indirect
	golang.org/x/sys v0.31.0 // indirect
	golang.org/x/text v0.23.0 // indirect
)
